id;heure_livraison
1;2023-03-31T05:08:23
2;2023-03-30T20:21:35
3;2023-03-31T10:12:06
4;2023-03-31T13:58:51
5;2023-03-31T12:16:18
6;2023-03-31T06:13:09
7;2023-03-30T19:33:57
8;2023-03-30T22:23:56
9;2023-03-31T06:32:09
10;2023-03-31T06:04:30
