{
  "applications": "*",
  "changelogDate": "20230331155101",
  "dto": "mapstruct",
  "embedded": false,
  "entityTableName": "membre",
  "fields": [
    {
      "fieldName": "nom",
      "fieldType": "String",
      "fieldValidateRules": ["required"]
    },
    {
      "fieldName": "prenom",
      "fieldType": "String",
      "fieldValidateRules": ["required"]
    },
    {
      "fieldName": "type",
      "fieldType": "MembreType",
      "fieldValidateRules": ["required"],
      "fieldValues": "ARTISANT,LIVREUR,CLIENT"
    },
    {
      "fieldName": "adresse",
      "fieldType": "String",
      "fieldValidateRules": ["required"]
    }
  ],
  "fluentMethods": true,
  "jpaMetamodelFiltering": false,
  "name": "Membre",
  "pagination": "pagination",
  "readOnly": false,
  "relationships": [
    {
      "otherEntityName": "cooperative",
      "otherEntityRelationshipName": "membres",
      "relationshipName": "cooperative",
      "relationshipType": "one-to-many"
    },
    {
      "otherEntityName": "panier",
      "otherEntityRelationshipName": "client",
      "relationshipName": "paniers",
      "relationshipType": "one-to-many"
    },
    {
      "otherEntityName": "livraison",
      "otherEntityRelationshipName": "livraisonMan",
      "relationshipName": "deliveries",
      "relationshipType": "one-to-many"
    }
  ],
  "service": "serviceImpl"
}
